GIt and npm with gitbash (no admin rights):

http://js-workout.tompascall.com/install-git-node-js-and-grunt-in-windows-7-office-environment-no-admin-rights-are-required/


====================================================================================================
kw: nodejs electron install Error: self signed certificate in certificate chain
git bash on windows 7:
export npm_config_strict_ssl=false; npm -g install electron

set config globally:
npm config set strict-ssl false


====================================================================================================



Web servers for Python:

http://cherrypy.org/
http://docs.cherrypy.org/en/latest/tutorials.html
https://github.com/cherrypy/cherrypy


http://www.tornadoweb.org/en/stable/
https://github.com/tornadoweb/tornado


https://twistedmatrix.com/trac/

====================================================================================================

pip --cert pypi.certfile.pem install cherrypy
pip --cert pypi.certfile.pem install requests


telnet 127.0.0.1:8000
GET /htbin/build.py?cmd=poll HTTP/1.1
host: 127.0.0.1

telnet 127.0.0.1:8000
GET /thing HTTP/1.1
host: 127.0.0.1

GET /simple HTTP/1.1
host: 127.0.0.1

http://127.0.0.1:9000/index



GET /htbin/build.py?cmd=poll HTTP/1.1
host: 127.0.0.1

http://127.0.0.1:8000/test/sse.html

?? https://github.com/cherrypy/cherrypy/issues/1502

